{
    "dataUrl":"https://gitlab.com/api/v4/projects/23588169/repository/files/data%2Fdata.json/raw?ref=master",
    "av":19,
    "avc":"19.0.0",
    "appUrl":"https://raw.githubusercontent.com/nillshetara/apk/main/aostv_v19.0.0.apk",
    "ba":["com.minhui.networkcapture.pro","com.minhui.networkcapture","com.guoshi.httpcanary","com.minhui.networkcapture.pro","app.greyshirts.sslcapture","com.evbadroid.proxymon","com.guoshi.httpcanary.premium","com.eakteam.networkmanager","com.dans.apps.webd"],
    "ad":["8fcbc74491d87b91","4c5da6bc129a24c7","5595ecd80427a6a0","6e5efa789d4488f9"],
    "adsp":[100],
    "cl":[],
    "clsp":[],
    "ignoreUrl":["ingest666","anil2gtv","uguu","file.town","meup.org","pramo.m3u8","tmpfiles.org","uguu.se","srv-file7.gofile.io","dacasts3-vh.akamaihd.net","savetree123.cf"],
    "defaultplay":"https://gitlab.com/aosconfig/channel-data/raw/master/aos_default_play.mp4",
    "lv":"180095",
    "lvu":"https://raw.githubusercontent.com/nillshetara/aostvdata/master/180095",
    "gt":"YmhLxhhYVTB4hR4nEQX_"
}
